<?xml version="1.0" encoding="utf-8"?>
<!-- Generator: Adobe Illustrator 15.1.0, SVG Export Plug-In . SVG Version: 6.00 Build 0)  -->
<!DOCTYPE svg PUBLIC "-//W3C//DTD SVG 1.1//EN" "http://www.w3.org/Graphics/SVG/1.1/DTD/svg11.dtd">
<svg version="1.1" id="Layer_1" xmlns="http://www.w3.org/2000/svg" xmlns:xlink="http://www.w3.org/1999/xlink" x="0px" y="0px"
	 width="100px" height="23px" viewBox="0 0 100 23" enable-background="new 0 0 100 23" xml:space="preserve">
<path fill="#FFFFFF" stroke="#FFFFFF" stroke-width="0.16" stroke-miterlimit="10" d="M32.582,2.733
	c0,0.655-0.212,1.181-0.632,1.572c-0.481,0.464-1.108,0.698-1.876,0.698c-0.735,0-1.363-0.237-1.878-0.706
	c-0.515-0.475-0.772-1.058-0.772-1.755c0-0.698,0.257-1.281,0.772-1.752c0.515-0.472,1.143-0.71,1.878-0.71
	c0.365,0,0.714,0.07,1.046,0.2c0.332,0.13,0.602,0.308,0.797,0.525l-0.444,0.415c-0.342-0.372-0.807-0.556-1.4-0.556
	c-0.537,0-1.002,0.173-1.396,0.521c-0.39,0.349-0.585,0.801-0.585,1.357c0,0.555,0.196,1.011,0.585,1.36
	c0.394,0.345,0.859,0.521,1.396,0.521c0.568,0,1.046-0.177,1.424-0.525c0.248-0.23,0.39-0.548,0.427-0.955h-1.852V2.377h2.47
	C32.573,2.5,32.582,2.618,32.582,2.733z M36.501,0.766h-2.32v1.492h2.092v0.567h-2.092v1.492h2.32v0.578h-2.978V0.188h2.978V0.766z
	 M39.269,4.895h-0.658V0.766h-1.423V0.188h3.505v0.578h-1.424V4.895z M43.23,4.895V0.188h0.656v4.707H43.23z M46.793,4.895h-0.651
	V0.766h-1.429V0.188h3.509v0.578h-1.429V4.895z M54.859,4.29c-0.502,0.476-1.126,0.713-1.869,0.713
	c-0.747,0-1.371-0.237-1.874-0.713c-0.502-0.475-0.751-1.058-0.751-1.748c0-0.69,0.249-1.273,0.751-1.748
	c0.503-0.477,1.127-0.714,1.874-0.714c0.739,0,1.361,0.238,1.865,0.718c0.506,0.479,0.756,1.057,0.756,1.744
	C55.611,3.232,55.361,3.814,54.859,4.29z M51.603,3.895c0.38,0.353,0.84,0.529,1.388,0.529c0.544,0,1.008-0.177,1.385-0.529
	c0.377-0.352,0.568-0.804,0.568-1.353c0-0.549-0.191-1.001-0.568-1.354c-0.377-0.353-0.841-0.529-1.385-0.529
	c-0.548,0-1.008,0.177-1.388,0.529c-0.378,0.352-0.568,0.804-0.568,1.354C51.034,3.09,51.225,3.542,51.603,3.895L51.603,3.895z
	 M56.533,4.895V0.188h0.797l2.48,3.661h0.026l-0.026-0.905V0.188h0.655v4.707h-0.685l-2.597-3.841h-0.029l0.029,0.909v2.933H56.533z
	"/>
<path fill="#FFFFFF" d="M50.203,13.323c-1.997,0-3.629,1.403-3.629,3.339c0,1.92,1.632,3.339,3.629,3.339
	c2.003,0,3.635-1.419,3.635-3.339C53.838,14.727,52.206,13.323,50.203,13.323L50.203,13.323z M50.203,18.686
	c-1.096,0-2.04-0.834-2.04-2.023c0-1.204,0.944-2.024,2.04-2.024c1.097,0,2.044,0.82,2.044,2.024
	C52.247,17.852,51.3,18.686,50.203,18.686z M42.284,13.323c-2.003,0-3.63,1.403-3.63,3.339c0,1.92,1.627,3.339,3.63,3.339
	c2.001,0,3.629-1.419,3.629-3.339C45.913,14.727,44.285,13.323,42.284,13.323z M42.284,18.686c-1.098,0-2.043-0.834-2.043-2.023
	c0-1.204,0.946-2.024,2.043-2.024c1.096,0,2.039,0.82,2.039,2.024C44.323,17.852,43.38,18.686,42.284,18.686z M32.859,14.346v1.42
	h3.671c-0.107,0.793-0.395,1.376-0.834,1.782c-0.536,0.49-1.371,1.034-2.837,1.034c-2.26,0-4.028-1.681-4.028-3.768
	c0-2.085,1.768-3.769,4.028-3.769c1.221,0,2.111,0.44,2.766,1.012l1.084-1c-0.918-0.809-2.138-1.43-3.85-1.43
	c-3.099,0-5.702,2.328-5.702,5.187s2.603,5.187,5.702,5.187c1.674,0,2.932-0.506,3.921-1.455c1.013-0.936,1.329-2.252,1.329-3.313
	c0-0.33-0.029-0.635-0.083-0.888H32.859z M71.398,15.447c-0.3-0.747-1.222-2.124-3.101-2.124c-1.861,0-3.409,1.353-3.409,3.339
	c0,1.871,1.532,3.339,3.588,3.339c1.662,0,2.622-0.936,3.015-1.479l-1.232-0.76c-0.412,0.557-0.972,0.924-1.782,0.924
	c-0.806,0-1.382-0.34-1.752-1.012l4.838-1.848L71.398,15.447L71.398,15.447z M66.464,16.559c-0.043-1.289,1.083-1.947,1.89-1.947
	c0.631,0,1.167,0.292,1.347,0.709L66.464,16.559z M62.531,19.798h1.59V9.983h-1.59V19.798z M59.925,14.067h-0.053
	c-0.357-0.392-1.037-0.744-1.901-0.744c-1.813,0-3.468,1.468-3.468,3.35c0,1.873,1.655,3.328,3.468,3.328
	c0.864,0,1.544-0.355,1.901-0.759h0.053v0.48c0,1.275-0.737,1.961-1.93,1.961c-0.972,0-1.574-0.646-1.823-1.192l-1.384,0.533
	C55.187,21.909,56.243,23,57.995,23c1.865,0,3.438-1.014,3.438-3.477v-5.997h-1.509V14.067z M58.106,18.686
	c-1.097,0-2.013-0.847-2.013-2.013c0-1.177,0.916-2.035,2.013-2.035c1.081,0,1.932,0.858,1.932,2.035
	C60.038,17.839,59.188,18.686,58.106,18.686z M78.843,9.983h-3.804v9.814h1.586v-3.719h2.218c1.762,0,3.49-1.176,3.49-3.048
	C82.333,11.161,80.601,9.983,78.843,9.983L78.843,9.983z M78.885,14.715h-2.26V11.35h2.26c1.185,0,1.861,0.907,1.861,1.682
	C80.746,13.791,80.069,14.715,78.885,14.715z M88.691,13.304c-1.146,0-2.339,0.468-2.829,1.502l1.408,0.545
	c0.304-0.545,0.859-0.722,1.449-0.722c0.823,0,1.656,0.457,1.67,1.264v0.102c-0.288-0.152-0.902-0.379-1.658-0.379
	c-1.517,0-3.061,0.771-3.061,2.208c0,1.314,1.242,2.162,2.638,2.162c1.066,0,1.657-0.445,2.027-0.962h0.054v0.759h1.532v-3.765
	C91.922,14.278,90.515,13.304,88.691,13.304z M88.5,18.682c-0.52,0-1.242-0.237-1.242-0.83c0-0.76,0.9-1.052,1.681-1.052
	c0.699,0,1.027,0.143,1.451,0.33C90.266,18.038,89.418,18.682,88.5,18.682z M97.503,13.519l-1.822,4.255h-0.055l-1.886-4.255h-1.71
	l2.831,5.947l-1.615,3.307h1.657l4.365-9.254H97.503z M83.205,19.798h1.59V9.983h-1.59V19.798z"/>
<linearGradient id="SVGID_1_" gradientUnits="userSpaceOnUse" x1="236.6836" y1="-375.4893" x2="225.6974" y2="-364.5038" gradientTransform="matrix(1.2994 0 0 -1.1994 -296.752 -429.5609)">
	<stop  offset="0" style="stop-color:#00A0FF"/>
	<stop  offset="0.007" style="stop-color:#00A1FF"/>
	<stop  offset="0.26" style="stop-color:#00BEFF"/>
	<stop  offset="0.512" style="stop-color:#00D2FF"/>
	<stop  offset="0.76" style="stop-color:#00DFFF"/>
	<stop  offset="1" style="stop-color:#00E3FF"/>
</linearGradient>
<path fill="url(#SVGID_1_)" d="M1.126,2.163C0.876,2.405,0.731,2.78,0.731,3.267v17.364c0,0.486,0.145,0.862,0.395,1.103
	l0.061,0.054l10.541-9.726v-0.229L1.188,2.106L1.126,2.163z"/>
<linearGradient id="SVGID_2_" gradientUnits="userSpaceOnUse" x1="244.5615" y1="-368.0972" x2="228.7222" y2="-368.0972" gradientTransform="matrix(1.2994 0 0 -1.1994 -296.752 -429.5609)">
	<stop  offset="0" style="stop-color:#FFE000"/>
	<stop  offset="0.409" style="stop-color:#FFBD00"/>
	<stop  offset="0.775" style="stop-color:#FFA500"/>
	<stop  offset="1" style="stop-color:#FF9C00"/>
</linearGradient>
<path fill="url(#SVGID_2_)" d="M15.238,15.305l-3.51-3.243v-0.229l3.514-3.244L15.32,8.63l4.162,2.186
	c1.188,0.621,1.188,1.641,0,2.266l-4.162,2.18L15.238,15.305z"/>
<linearGradient id="SVGID_3_" gradientUnits="userSpaceOnUse" x1="233.2051" y1="-372.0562" x2="218.3129" y2="-357.1639" gradientTransform="matrix(1.2994 0 0 -1.1994 -296.752 -429.5609)">
	<stop  offset="0" style="stop-color:#FF3A44"/>
	<stop  offset="1" style="stop-color:#C31162"/>
</linearGradient>
<path fill="url(#SVGID_3_)" d="M15.32,15.262l-3.592-3.315L1.126,21.733c0.395,0.384,1.038,0.43,1.769,0.046L15.32,15.262"/>
<linearGradient id="SVGID_4_" gradientUnits="userSpaceOnUse" x1="221.7295" y1="-375.6143" x2="228.383" y2="-368.9607" gradientTransform="matrix(1.2994 0 0 -1.1994 -296.752 -429.5609)">
	<stop  offset="0" style="stop-color:#32A071"/>
	<stop  offset="0.069" style="stop-color:#2DA771"/>
	<stop  offset="0.476" style="stop-color:#15CF74"/>
	<stop  offset="0.801" style="stop-color:#06E775"/>
	<stop  offset="1" style="stop-color:#00F076"/>
</linearGradient>
<path fill="url(#SVGID_4_)" d="M15.32,8.63L2.896,2.113c-0.731-0.379-1.375-0.333-1.769,0.05l10.602,9.784L15.32,8.63z"/>
</svg>
