<?xml version="1.0" encoding="utf-8"?>
<!-- Generator: Adobe Illustrator 15.1.0, SVG Export Plug-In . SVG Version: 6.00 Build 0)  -->
<!DOCTYPE svg PUBLIC "-//W3C//DTD SVG 1.1//EN" "http://www.w3.org/Graphics/SVG/1.1/DTD/svg11.dtd">
<svg version="1.1" id="Layer_1" xmlns="http://www.w3.org/2000/svg" xmlns:xlink="http://www.w3.org/1999/xlink" x="0px" y="0px"
	 width="230px" height="260px" viewBox="0 0 230 260" enable-background="new 0 0 230 260" xml:space="preserve">
<path fill="#AB99B0" d="M85.76,85.802c-0.003-2.728-2.436-6.549-5.425-8.526L34.302,46.793c-2.99-1.982-5.412-1.372-5.407,1.357
	l0.103,51.912c0.008,2.73,2.438,6.55,5.428,8.53l46.034,30.479c2.991,1.982,5.41,1.375,5.405-1.355L85.76,85.802z"/>
<g>
	<path fill="#9E9E9E" d="M34.172,142.405l45.569,29.534c3.46,2.241,6.262,1.876,6.258-0.818c-0.005-2.695-2.817-6.699-6.278-8.94
		l-45.568-29.532c-3.46-2.241-6.26-1.877-6.256,0.818C27.904,136.159,30.715,140.164,34.172,142.405z"/>
	<path fill="#9E9E9E" d="M34.208,160.297l45.569,29.53c3.46,2.243,6.264,1.878,6.256-0.818c-0.005-2.692-2.813-6.697-6.273-8.938
		l-45.571-29.534c-3.458-2.241-6.262-1.874-6.258,0.818C27.936,154.052,30.748,158.054,34.208,160.297z"/>
	<path fill="#9E9E9E" d="M80.557,198.513c-0.253-0.188-46.332-30.085-46.332-30.085c-3.46-2.24-6.262-1.876-6.257,0.817
		c0.007,2.694,2.818,6.697,6.278,8.941l45.567,29.53c3.461,2.243,6.262,1.876,6.257-0.816
		C86.067,204.411,83.652,200.815,80.557,198.513z"/>
</g>
<path fill="#DB676B" d="M217.534,180.583h-17.945v-38.297c0-2.604-1.61-4.736-3.576-4.736h-31.882c-1.966,0-3.575,2.132-3.575,4.736
	v38.297h-17.946c-3.093,0-4.021,1.912-2.063,4.25l39.526,47.468l39.527-47.468C221.556,182.495,220.627,180.583,217.534,180.583z"/>
<polygon fill="none" points="10.347,13.369 10.681,183.205 104.726,245.568 104.388,75.732 "/>
<path opacity="0.23" fill="#8C8C8C" d="M88.73,31.413v24.19l20.961,13.9c2.941,1.95,5.33,5.715,5.334,8.407l0.245,123.646h26.953
	l-8.827-10.601c-3.327-3.975-4.158-8.863-2.226-13.079c1.942-4.239,6.22-6.77,11.438-6.77h8.579v-28.821
	c0-5.875,3.265-10.929,7.905-13.09V31.413H88.73z"/>
<path fill="#404040" d="M228.975,177.877c-1.943-4.239-6.22-6.77-11.44-6.77h-8.578v-28.821c0-7.836-5.806-14.211-12.943-14.211
	h-26.259V68.794V27.317c0-1.343-0.568-2.559-1.477-3.52c-0.75-0.713-1.671-1.287-2.691-1.686c-0.592-0.229-1.203-0.418-1.854-0.509
	L8.947,0.072C7.694-0.102,6.527,0.05,5.515,0.423c-1.958,0.726-3.3,2.343-3.329,4.42L0,157.973l0.046,23.055
	c0.002,1.626,0.885,3.638,2.221,5.411c0.879,1.162,1.947,2.221,3.112,2.994l104.69,69.426c2.94,1.946,5.318,1.343,5.312-1.352
	l-0.089-46.282l34.986,0.005l29.794,35.779l46.692-56.072C230.074,186.981,230.907,182.093,228.975,177.877z M10.681,183.205
	L10.347,13.369l94.042,62.363l0.337,169.836L10.681,183.205z M142.229,201.563l-0.005-0.006h-26.953l-0.245-123.646
	c-0.004-2.692-2.393-6.457-5.334-8.407l-20.961-13.9v-24.19h70.363v97.784c-4.641,2.161-7.905,7.215-7.905,13.09v28.821h-8.579
	c-5.219,0-9.496,2.53-11.438,6.77c-1.933,4.216-1.102,9.104,2.226,13.079L142.229,201.563L142.229,201.563z M219.6,184.833
	l-39.527,47.468l-39.526-47.468c-1.958-2.338-1.029-4.25,2.063-4.25h17.946v-38.297c0-2.604,1.609-4.736,3.575-4.736h31.882
	c1.966,0,3.576,2.132,3.576,4.736v38.297h17.945C220.627,180.583,221.556,182.495,219.6,184.833z"/>
<path fill="#FFFFFF" d="M104.389,75.732L10.347,13.369l0.334,169.836l94.044,62.363L104.389,75.732z M34.302,46.793l46.032,30.482
	c2.99,1.979,5.422,5.799,5.425,8.527l0.105,51.913c0.004,2.73-2.415,3.338-5.405,1.355l-46.034-30.479
	c-2.99-1.979-5.419-5.799-5.428-8.529L28.895,48.15C28.891,45.421,31.312,44.811,34.302,46.793z M34.153,132.648l45.568,29.532
	c3.46,2.241,6.272,6.245,6.278,8.94c0.003,2.694-2.798,3.06-6.258,0.818l-45.569-29.534c-3.458-2.241-6.268-6.246-6.275-8.938
	C27.893,130.771,30.693,130.408,34.153,132.648z M34.189,150.536L79.76,180.07c3.459,2.241,6.268,6.246,6.273,8.938
	c0.008,2.696-2.796,3.062-6.256,0.818l-45.569-29.53c-3.46-2.243-6.272-6.245-6.277-8.942
	C27.928,148.662,30.731,148.295,34.189,150.536z M79.814,207.717l-45.567-29.53c-3.46-2.244-6.271-6.247-6.278-8.941
	c-0.004-2.693,2.797-3.058,6.257-0.817c0,0,46.078,29.897,46.332,30.085c3.095,2.303,5.51,5.898,5.514,8.388
	C86.076,209.593,83.275,209.96,79.814,207.717z"/>
</svg>
