<svg xmlns="http://www.w3.org/2000/svg" width="256px" height="256px" viewBox="0 0 256 256">
<path fill="#318EAF" d="M255.298,210.137c-1.266,7.198-2.868,12.939-4.812,17.22c-1.168,2.729-2.966,5.305-5.394,7.737
	c-3.304,3.307-8.94,7.199-16.906,11.676c-0.391,0.193-0.779,0.387-1.166,0.585c-14.771,7.784-29.639,10.309-44.603,7.587
	c-6.413-1.166-18.271-4.963-35.567-11.383c-15.159-5.644-28.958-12.844-41.395-21.602c-12.438-8.753-25.217-19.7-38.336-32.837
	c-13.118-13.136-24.051-25.929-32.796-38.385c-8.745-12.451-15.935-26.267-21.573-41.449c-0.387-0.972-0.875-2.334-1.458-4.085
	c-3.499-9.533-5.878-16.344-7.141-20.432c-1.265-4.084-2.428-9.729-3.5-16.931c-1.067-7.199-0.827-13.863,0.729-19.995
	c1.556-6.126,4.278-12.792,8.163-19.994c4.469-7.978,8.357-13.621,11.663-16.93c2.427-2.431,5.003-4.23,7.725-5.4
	c4.276-1.945,10.009-3.551,17.2-4.815s11.856-0.826,13.993,1.312c1.07,1.072,3.254,4.527,6.559,10.363
	c3.305,5.84,6.996,12.55,11.078,20.141c4.082,7.589,6.462,11.919,7.142,12.99c0.293,0.487,1.335,2.02,3.136,4.597
	c1.796,2.579,3.132,4.742,4.007,6.494c0.874,1.751,1.263,3.456,1.167,5.108c-0.097,2.824-1.895,5.984-5.394,9.487
	c-2.235,2.239-5.903,5.377-11.005,9.415c-5.1,4.041-8.819,7.223-11.15,9.56c-3.304,3.309-5.054,6.131-5.248,8.464
	c-0.095,1.071,0.12,2.36,0.656,3.868c0.533,1.509,1.142,2.849,1.822,4.014c0.681,1.169,1.531,2.654,2.55,4.451
	c1.021,1.8,1.677,2.945,1.968,3.43c8.844,16.057,19.438,30.264,31.776,42.617c12.342,12.358,26.528,22.964,42.561,31.817
	c0.486,0.293,1.63,0.949,3.427,1.971c1.798,1.024,3.28,1.872,4.444,2.553c1.166,0.685,2.502,1.29,4.01,1.823
	c1.507,0.537,2.796,0.755,3.864,0.657c2.33-0.191,5.15-1.946,8.453-5.253c2.331-2.334,5.512-6.054,9.546-11.166
	c4.034-5.105,7.167-8.779,9.403-11.019c3.5-3.501,6.656-5.302,9.474-5.402c1.653-0.094,3.352,0.295,5.102,1.17
	c1.748,0.874,3.912,2.214,6.487,4.016c2.573,1.802,4.104,2.847,4.59,3.137c1.067,0.681,5.396,3.063,12.976,7.151
	c7.577,4.085,14.279,7.782,20.113,11.093c5.829,3.306,9.279,5.495,10.35,6.564C256.122,198.266,256.558,202.933,255.298,210.137z"/>
</svg>